000sumador.vcd
$date
	Tue Jul  6 16:18:29 2021
$end
$version
	Icarus Verilog
$end
$timescale
	1s
$end
$scope module BUF $end
$var wire 1 ! A $end
$var wire 1 " Y $end
$upscope $end
$scope module DFFSR $end
$var wire 1 # C $end
$var wire 1 $ D $end
$var wire 1 % R $end
$var wire 1 & S $end
$var reg 1 ' Q $end
$upscope $end
$scope module testbench $end
$var wire 4 ( sum30_dd_out_synt [3:0] $end
$var wire 4 ) sum30_dd_out [3:0] $end
$var wire 1 * reset_L $end
$var wire 4 + idx_dd_out_synt [3:0] $end
$var wire 4 , idx_dd_out [3:0] $end
$var wire 4 - idx [3:0] $end
$var wire 4 . dataB [3:0] $end
$var wire 4 / dataA [3:0] $end
$var wire 1 0 clk $end
$scope module CONDUCTUAL $end
$var wire 4 1 sum30_dd_out [3:0] $end
$var wire 1 * reset_L $end
$var wire 4 2 idx [3:0] $end
$var wire 4 3 dataB [3:0] $end
$var wire 4 4 dataA [3:0] $end
$var wire 1 0 clk $end
$var reg 4 5 idx_d [3:0] $end
$var reg 4 6 idx_dd_out [3:0] $end
$scope module SUM_PIPE $end
$var wire 1 * reset_L $end
$var wire 4 7 dataB [3:0] $end
$var wire 4 8 dataA [3:0] $end
$var wire 1 0 clk $end
$var reg 1 9 acarreo0 $end
$var reg 1 : acarreo0_d $end
$var reg 2 ; dataA_d [1:0] $end
$var reg 2 < dataB_d [1:0] $end
$var reg 2 = sum10 [1:0] $end
$var reg 2 > sum10_d [1:0] $end
$var reg 4 ? sum30_d [3:0] $end
$var reg 4 @ sum30_dd_out [3:0] $end
$scope begin CARRY_LOGIC $end
$upscope $end
$scope begin FLOPS_ETAPA1 $end
$upscope $end
$scope begin FLOPS_ETAPA2 $end
$upscope $end
$scope begin SUMLSB_LOGIC $end
$upscope $end
$scope begin SUMMSB_LOGIC $end
$upscope $end
$upscope $end
$upscope $end
$scope module PROBADOR $end
$var wire 4 A idx_dd_out [3:0] $end
$var wire 4 B sum30_dd_out [3:0] $end
$var wire 4 C sum30_dd_out_synt [3:0] $end
$var wire 4 D idx_dd_out_synt [3:0] $end
$var reg 1 0 clk $end
$var reg 4 E dataA [3:0] $end
$var reg 4 F dataA_n [3:0] $end
$var reg 4 G dataB [3:0] $end
$var reg 4 H dataB_n [3:0] $end
$var reg 1 I discrepancia $end
$var reg 4 J idx [3:0] $end
$var reg 4 K idx_n [3:0] $end
$var reg 1 * reset_L $end
$var reg 1 L reset_L_n $end
$upscope $end
$scope module SYNTESIS $end
$var wire 1 0 clk $end
$var wire 4 M dataA [3:0] $end
$var wire 4 N dataB [3:0] $end
$var wire 4 O idx [3:0] $end
$var wire 1 * reset_L $end
$var wire 4 P sum30_dd_out_synt [3:0] $end
$var wire 4 Q idx_dd_out_synt [3:0] $end
$var wire 4 R idx_d [3:0] $end
$scope module SUM_PIPE $end
$var wire 1 0 clk $end
$var wire 4 S dataA [3:0] $end
$var wire 4 T dataB [3:0] $end
$var wire 1 * reset_L $end
$var wire 4 U sum30_dd_out_synt [3:0] $end
$var wire 4 V sum30_d [3:0] $end
$var wire 2 W sum10_d [1:0] $end
$var wire 2 X sum10 [1:0] $end
$var wire 2 Y dataB_d [1:0] $end
$var wire 2 Z dataA_d [1:0] $end
$var wire 1 [ acarreo0_d $end
$var wire 1 \ acarreo0 $end
$var wire 1 ] _40_ $end
$var wire 1 ^ _39_ $end
$var wire 1 _ _38_ $end
$var wire 1 ` _37_ $end
$var wire 1 a _36_ $end
$var wire 1 b _35_ $end
$var wire 1 c _34_ $end
$var wire 1 d _33_ $end
$var wire 1 e _32_ $end
$var wire 1 f _31_ $end
$var wire 1 g _30_ $end
$var wire 1 h _29_ $end
$var wire 1 i _28_ $end
$var wire 1 j _27_ $end
$var wire 1 k _26_ $end
$var wire 1 l _25_ $end
$var wire 1 m _24_ $end
$var wire 1 n _23_ $end
$var wire 1 o _22_ $end
$var wire 1 p _21_ $end
$var wire 1 q _20_ $end
$var wire 1 r _19_ $end
$var wire 1 s _18_ $end
$var wire 1 t _17_ $end
$var wire 1 u _16_ $end
$var wire 1 v _15_ $end
$var wire 1 w _14_ $end
$var wire 1 x _13_ $end
$var wire 1 y _12_ $end
$var wire 1 z _11_ $end
$var wire 1 { _10_ $end
$var wire 1 | _09_ $end
$var wire 1 } _08_ $end
$var wire 1 ~ _07_ $end
$var wire 1 !" _06_ $end
$var wire 1 "" _05_ $end
$var wire 1 #" _04_ $end
$var wire 1 $" _03_ $end
$var wire 1 %" _02_ $end
$var wire 1 &" _01_ $end
$var wire 1 '" _00_ $end
$scope module _41_ $end
$var wire 1 * A $end
$var wire 1 '" Y $end
$upscope $end
$scope module _42_ $end
$var wire 1 (" A $end
$var wire 1 &" Y $end
$upscope $end
$scope module _43_ $end
$var wire 1 )" A $end
$var wire 1 %" Y $end
$upscope $end
$scope module _44_ $end
$var wire 1 *" A $end
$var wire 1 $" Y $end
$upscope $end
$scope module _45_ $end
$var wire 1 #" Y $end
$var wire 1 [ A $end
$upscope $end
$scope module _46_ $end
$var wire 1 &" A $end
$var wire 1 $" B $end
$var wire 1 "" Y $end
$upscope $end
$scope module _47_ $end
$var wire 1 +" A $end
$var wire 1 ," B $end
$var wire 1 !" Y $end
$upscope $end
$scope module _48_ $end
$var wire 1 -" A $end
$var wire 1 ." B $end
$var wire 1 ~ Y $end
$upscope $end
$scope module _49_ $end
$var wire 1 '" A $end
$var wire 1 ~ B $end
$var wire 1 } Y $end
$upscope $end
$scope module _50_ $end
$var wire 1 !" A $end
$var wire 1 } B $end
$var wire 1 | Y $end
$upscope $end
$scope module _51_ $end
$var wire 1 | A $end
$var wire 1 /" Y $end
$upscope $end
$scope module _52_ $end
$var wire 1 0" A $end
$var wire 1 1" B $end
$var wire 1 { Y $end
$upscope $end
$scope module _53_ $end
$var wire 1 { A $end
$var wire 1 z Y $end
$upscope $end
$scope module _54_ $end
$var wire 1 2" A $end
$var wire 1 3" B $end
$var wire 1 y Y $end
$upscope $end
$scope module _55_ $end
$var wire 1 y A $end
$var wire 1 x Y $end
$upscope $end
$scope module _56_ $end
$var wire 1 { A $end
$var wire 1 x B $end
$var wire 1 w Y $end
$upscope $end
$scope module _57_ $end
$var wire 1 z A $end
$var wire 1 y B $end
$var wire 1 v Y $end
$upscope $end
$scope module _58_ $end
$var wire 1 "" A $end
$var wire 1 v B $end
$var wire 1 u Y $end
$upscope $end
$scope module _59_ $end
$var wire 1 !" A $end
$var wire 1 w B $end
$var wire 1 t Y $end
$upscope $end
$scope module _60_ $end
$var wire 1 u A $end
$var wire 1 t B $end
$var wire 1 s Y $end
$upscope $end
$scope module _61_ $end
$var wire 1 '" A $end
$var wire 1 s B $end
$var wire 1 4" Y $end
$upscope $end
$scope module _62_ $end
$var wire 1 5" A $end
$var wire 1 | B $end
$var wire 1 r Y $end
$upscope $end
$scope module _63_ $end
$var wire 1 %" A $end
$var wire 1 r B $end
$var wire 1 q Y $end
$upscope $end
$scope module _64_ $end
$var wire 1 s A $end
$var wire 1 q B $end
$var wire 1 p Y $end
$upscope $end
$scope module _65_ $end
$var wire 1 %" A $end
$var wire 1 r B $end
$var wire 1 o Y $end
$upscope $end
$scope module _66_ $end
$var wire 1 * A $end
$var wire 1 o B $end
$var wire 1 n Y $end
$upscope $end
$scope module _67_ $end
$var wire 1 p A $end
$var wire 1 n B $end
$var wire 1 \ Y $end
$upscope $end
$scope module _68_ $end
$var wire 1 6" A $end
$var wire 1 7" B $end
$var wire 1 m Y $end
$upscope $end
$scope module _69_ $end
$var wire 1 m A $end
$var wire 1 l Y $end
$upscope $end
$scope module _70_ $end
$var wire 1 8" A $end
$var wire 1 9" B $end
$var wire 1 k Y $end
$upscope $end
$scope module _71_ $end
$var wire 1 #" A $end
$var wire 1 k B $end
$var wire 1 j Y $end
$upscope $end
$scope module _72_ $end
$var wire 1 l A $end
$var wire 1 j B $end
$var wire 1 i Y $end
$upscope $end
$scope module _73_ $end
$var wire 1 i A $end
$var wire 1 h Y $end
$upscope $end
$scope module _74_ $end
$var wire 1 :" A $end
$var wire 1 ;" B $end
$var wire 1 g Y $end
$upscope $end
$scope module _75_ $end
$var wire 1 g A $end
$var wire 1 f Y $end
$upscope $end
$scope module _76_ $end
$var wire 1 <" A $end
$var wire 1 =" B $end
$var wire 1 e Y $end
$upscope $end
$scope module _77_ $end
$var wire 1 e A $end
$var wire 1 d Y $end
$upscope $end
$scope module _78_ $end
$var wire 1 f A $end
$var wire 1 e B $end
$var wire 1 c Y $end
$upscope $end
$scope module _79_ $end
$var wire 1 g A $end
$var wire 1 d B $end
$var wire 1 b Y $end
$upscope $end
$scope module _80_ $end
$var wire 1 i A $end
$var wire 1 c B $end
$var wire 1 a Y $end
$upscope $end
$scope module _81_ $end
$var wire 1 h A $end
$var wire 1 b B $end
$var wire 1 ` Y $end
$upscope $end
$scope module _82_ $end
$var wire 1 a A $end
$var wire 1 ` B $end
$var wire 1 >" Y $end
$upscope $end
$scope module _83_ $end
$var wire 1 #" A $end
$var wire 1 k B $end
$var wire 1 _ Y $end
$upscope $end
$scope module _84_ $end
$var wire 1 l B $end
$var wire 1 ^ Y $end
$var wire 1 [ A $end
$upscope $end
$scope module _85_ $end
$var wire 1 i A $end
$var wire 1 _ B $end
$var wire 1 ] Y $end
$upscope $end
$scope module _86_ $end
$var wire 1 ^ A $end
$var wire 1 ] B $end
$var wire 1 ?" Y $end
$upscope $end
$scope module _87_ $end
$var wire 1 0 C $end
$var wire 1 \ D $end
$var reg 1 [ Q $end
$upscope $end
$scope module _88_ $end
$var wire 1 0 C $end
$var wire 1 @" D $end
$var reg 1 A" Q $end
$upscope $end
$scope module _89_ $end
$var wire 1 0 C $end
$var wire 1 B" D $end
$var reg 1 C" Q $end
$upscope $end
$scope module _90_ $end
$var wire 1 0 C $end
$var wire 1 D" D $end
$var reg 1 E" Q $end
$upscope $end
$scope module _91_ $end
$var wire 1 0 C $end
$var wire 1 F" D $end
$var reg 1 G" Q $end
$upscope $end
$scope module _92_ $end
$var wire 1 0 C $end
$var wire 1 H" D $end
$var reg 1 I" Q $end
$upscope $end
$scope module _93_ $end
$var wire 1 0 C $end
$var wire 1 J" D $end
$var reg 1 K" Q $end
$upscope $end
$scope module _94_ $end
$var wire 1 0 C $end
$var wire 1 L" D $end
$var reg 1 M" Q $end
$upscope $end
$scope module _95_ $end
$var wire 1 0 C $end
$var wire 1 N" D $end
$var reg 1 O" Q $end
$upscope $end
$scope module _96_ $end
$var wire 1 0 C $end
$var wire 1 P" D $end
$var reg 1 Q" Q $end
$upscope $end
$scope module _97_ $end
$var wire 1 0 C $end
$var wire 1 R" D $end
$var reg 1 S" Q $end
$upscope $end
$upscope $end
$scope module _0_ $end
$var wire 1 0 C $end
$var wire 1 T" D $end
$var reg 1 U" Q $end
$upscope $end
$scope module _1_ $end
$var wire 1 0 C $end
$var wire 1 V" D $end
$var reg 1 W" Q $end
$upscope $end
$scope module _2_ $end
$var wire 1 0 C $end
$var wire 1 X" D $end
$var reg 1 Y" Q $end
$upscope $end
$scope module _3_ $end
$var wire 1 0 C $end
$var wire 1 Z" D $end
$var reg 1 [" Q $end
$upscope $end
$scope module _4_ $end
$var wire 1 0 C $end
$var wire 1 \" D $end
$var reg 1 ]" Q $end
$upscope $end
$scope module _5_ $end
$var wire 1 0 C $end
$var wire 1 ^" D $end
$var reg 1 _" Q $end
$upscope $end
$scope module _6_ $end
$var wire 1 0 C $end
$var wire 1 `" D $end
$var reg 1 a" Q $end
$upscope $end
$scope module _7_ $end
$var wire 1 0 C $end
$var wire 1 b" D $end
$var reg 1 c" Q $end
$upscope $end
$upscope $end
$upscope $end
$enddefinitions $end
#0
$dumpvars
xc"
xb"
xa"
x`"
x_"
x^"
x]"
x\"
x["
xZ"
xY"
xX"
xW"
xV"
xU"
xT"
xS"
xR"
xQ"
xP"
xO"
xN"
xM"
xL"
xK"
xJ"
xI"
xH"
xG"
xF"
xE"
xD"
xC"
xB"
xA"
x@"
x?"
x>"
x="
x<"
x;"
x:"
x9"
x8"
x7"
x6"
x5"
x4"
x3"
x2"
x1"
x0"
x/"
x."
x-"
x,"
x+"
x*"
x)"
x("
x'"
x&"
x%"
x$"
x#"
x""
x!"
x~
x}
x|
x{
xz
xy
xx
xw
xv
xu
xt
xs
xr
xq
xp
xo
xn
xm
xl
xk
xj
xi
xh
xg
xf
xe
xd
xc
xb
xa
x`
x_
x^
x]
x\
x[
bx Z
bx Y
bx X
bx W
bx V
bx U
bx T
bx S
bx R
bx Q
bx P
bx O
bx N
bx M
0L
b0 K
bx J
xI
b0 H
bx G
b0 F
bx E
bx D
bx C
bx B
bx A
bx @
bx ?
bx >
bx =
bx <
bx ;
x:
x9
bx 8
bx 7
bx 6
bx 5
bx 4
bx 3
bx 2
bx 1
00
bx /
bx .
bx -
bx ,
bx +
x*
bx )
bx (
x'
z&
z%
z$
z#
z"
z!
$end
#1
0p
1s
0u
0L"
0/"
1v
1|
0t
0w
0N"
0\
0""
0q
0o
0z
0x
0}
b0 X
04"
1!"
1~
1{
1y
1r
1n
1$"
1&"
1%"
1'"
0\"
0^"
0`"
0b"
0*"
0,"
0."
01"
03"
0H"
0J"
0("
0)"
0+"
0-"
00"
02"
05"
0P"
0R"
09
b0 =
0*
b0 -
b0 2
b0 J
b0 O
b0 .
b0 3
b0 7
b0 G
b0 N
b0 T
b0 /
b0 4
b0 8
b0 E
b0 M
b0 S
10
#2
00
#3
0F"
0>"
1`
0D"
0]
0?"
0a
0h
1i
1^
1c
0b
0j
0d
0f
0l
1e
1g
1k
1m
0_
b0 ?
0<"
0:"
08"
06"
0B"
0@"
0="
0;"
09"
07"
1#"
0Z"
0X"
0V"
0T"
b0 >
b0 <
b0 ;
0:
b0 5
0S"
b0 Z
0Q"
0O"
b0 V
b0 W
0M"
0K"
b0 Y
0I"
0[
0c"
0a"
0_"
b0 R
0]"
0I
10
#4
00
#5
0'"
b0 )
b0 1
b0 @
b0 B
1*
0U"
0W"
0Y"
b0 +
b0 D
b0 Q
0["
0A"
0C"
0E"
b0 (
b0 C
b0 P
b0 U
0G"
b0 ,
b0 6
b0 A
10
1L
#6
00
#7
1L"
b1 X
1/"
0|
1}
0~
0$"
1\"
1b"
1*"
1,"
1."
1P"
b1 =
b1001 -
b1001 2
b1001 J
b1001 O
b1 .
b1 3
b1 7
b1 G
b1 N
b1 T
b100 /
b100 4
b100 8
b100 E
b100 M
b100 S
10
b1001 K
b1 H
b100 F
#8
00
#9
0N"
1q
04"
0p
1D"
1\
1?"
0L"
0r
1s
0n
b0 X
0/"
0v
0^
1|
0t
1w
1""
1o
1z
1l
0!"
0{
0m
0&"
0%"
b101 ?
1`"
1H"
1J"
1("
1)"
1+"
1-"
10"
12"
15"
0P"
19
b0 =
1T"
1Z"
1@"
18"
16"
b1 >
b1 ;
b1101 -
b1101 2
b1101 J
b1101 O
b1101 .
b1101 3
b1101 7
b1101 G
b1101 N
b1101 T
b11 /
b11 4
b11 8
b11 E
b11 M
b11 S
1]"
b1001 R
1c"
b101 V
b1 W
1M"
b1 Z
1Q"
b1001 5
10
b1101 K
b1101 H
b11 F
#10
00
#11
0\
1N"
1n
0F"
0D"
14"
1p
0>"
0?"
0o
1a
0s
0`
1]
1L"
1r
0c
1h
1u
b11 X
1/"
1b
0i
0|
1f
0""
0q
0g
1j
1!"
1$"
1%"
b0 ?
08"
06"
0@"
1="
1;"
19"
17"
0#"
1X"
0`"
0b"
0*"
0,"
0."
11"
13"
0H"
0J"
0)"
00"
02"
1P"
09
b11 =
b101 )
b101 1
b101 @
b101 B
b0 >
b11 <
b0 ;
1:
b1001 ,
b1001 6
b1001 A
b1101 5
b0 Z
0Q"
b0 V
b0 W
0M"
1K"
b11 Y
1I"
1E"
b101 (
b101 C
b101 P
b101 U
1A"
1[
b1101 R
1a"
1["
b1001 +
b1001 D
b1001 Q
1U"
b1 -
b1 2
b1 J
b1 O
b10 .
b10 3
b10 7
b10 G
b10 N
b10 T
b101 /
b101 4
b101 8
b101 E
b101 M
b101 S
10
b1 K
b10 H
b101 F
#12
00
#13
0F"
1D"
0>"
1?"
1`
0a
0]
0h
1c
1i
0b
0f
0j
1g
b111 ?
1`"
1b"
1H"
1R"
0X"
0Z"
1#"
09"
07"
0="
0;"
1@"
1B"
18"
16"
b0 )
b0 1
b0 @
b0 B
b11 >
b0 <
b1 ;
0:
b1101 -
b1101 2
b1101 J
b1101 O
b110 .
b110 3
b110 7
b110 G
b110 N
b110 T
b1101 /
b1101 4
b1101 8
b1101 E
b1101 M
b1101 S
b1101 +
b1101 D
b1101 Q
1Y"
0a"
b1 R
0c"
0[
0A"
b0 (
b0 C
b0 P
b0 U
0E"
0I"
b0 Y
0K"
1M"
b111 V
b11 W
1O"
b1 Z
1Q"
b1101 ,
b1101 6
b1101 A
b1 5
10
b1101 K
b110 H
b1101 F
#14
00
#15
0N"
0D"
b1 X
04"
0p
0?"
0F"
1s
b11 V
0>"
1]
1a
1h
0u
0`
0i
0c
1v
1b
1j
0w
1f
0z
0g
0k
1{
b11 ?
1<"
1:"
19"
17"
1Z"
1X"
0`"
01"
03"
1J"
b1 =
b111 )
b111 1
b111 @
b111 B
b1 <
b11 ;
b1 ,
b1 6
b1 A
b1101 5
b11 Z
1S"
b1 Y
1I"
1E"
1C"
b111 (
b111 C
b111 P
b111 U
1A"
1c"
b1101 R
1a"
0["
b1 +
b1 D
b1 Q
0Y"
b1001 -
b1001 2
b1001 J
b1001 O
b1100 .
b1100 3
b1100 7
b1100 G
b1100 N
b1100 T
10
b1001 K
b1100 H
#16
00
#17
1N"
b11 X
14"
1p
0s
1F"
1>"
0\
1u
0a
0n
0v
0b
1w
1c
1o
1z
1d
0{
0e
0$"
1&"
0%"
b1001 ?
0\"
1^"
1*"
1,"
1."
0J"
0("
1)"
0+"
0-"
10"
12"
05"
0R"
b11 =
0X"
1="
1;"
0B"
b11 )
b11 1
b11 @
b11 B
b1 >
b11 <
b1010 -
b1010 2
b1010 J
b1010 O
b101 .
b101 3
b101 7
b101 G
b101 N
b101 T
b110 /
b110 4
b110 8
b110 E
b110 M
b110 S
1Y"
b1101 +
b1101 D
b1101 Q
1["
b1001 R
0a"
b11 (
b11 C
b11 P
b11 U
0E"
b11 Y
1K"
b1001 V
b1 W
0O"
b1101 ,
b1101 6
b1101 A
b1001 5
10
b1010 K
b101 H
b110 F
#18
00
#19
1\
0N"
04"
0p
1s
0L"
0r
0u
0n
b0 X
0/"
1|
0d
0f
1""
1o
1e
1g
0!"
0&"
1%"
b1011 ?
0<"
0:"
1B"
0="
0;"
1V"
0T"
0b"
11"
13"
1("
0)"
1+"
1-"
00"
02"
15"
19
b0 =
b1001 )
b1001 1
b1001 @
b1001 B
b11 >
b1 <
b1 ;
b1001 ,
b1001 6
b1001 A
b1010 5
b1 Z
0S"
b1011 V
b11 W
1O"
b1 Y
0K"
1G"
b1001 (
b1001 C
b1001 P
b1001 U
0C"
1_"
b1010 R
0]"
b1001 +
b1001 D
b1001 Q
0Y"
b10 -
b10 2
b10 J
b10 O
b111 .
b111 3
b111 7
b111 G
b111 N
b111 T
b101 /
b101 4
b101 8
b101 E
b101 M
b101 S
10
b10 K
b111 H
b101 F
#20
00
#21
1D"
1L"
1r
1?"
b1 X
1/"
0w
0|
1v
0]
0""
0q
1x
1!"
0y
1_
1$"
0%"
b1100 ?
1`"
1b"
0*"
0,"
0."
0H"
1)"
10"
12"
1R"
b1 =
0Z"
0#"
0@"
0B"
b1011 )
b1011 1
b1011 @
b1011 B
b0 >
1:
b1110 -
b1110 2
b1110 J
b1110 O
b10 .
b10 3
b10 7
b10 G
b10 N
b10 T
b1111 /
b1111 4
b1111 8
b1111 E
b1111 M
b1111 S
0U"
b1010 +
b1010 D
b1010 Q
1W"
b10 R
0c"
1[
b1011 (
b1011 C
b1011 P
b1011 U
1C"
0M"
b1100 V
b0 W
0O"
b1010 ,
b1010 6
b1010 A
b10 5
10
b1110 K
b10 H
b1111 F
#22
00
#23
0N"
0F"
b1 X
04"
0p
0>"
0D"
0?"
1s
1a
0\
1]
0u
0c
1n
1b
0_
1v
1f
0o
0z
0x
0g
1k
1{
1y
0$"
1&"
1%"
b1 ?
1<"
1:"
1@"
09"
07"
1Z"
1X"
0^"
1*"
1,"
1."
01"
03"
1H"
0("
0)"
0+"
0-"
00"
02"
05"
0P"
09
b1100 )
b1100 1
b1100 @
b1100 B
b1 >
b0 <
b11 ;
b10 ,
b10 6
b10 A
b1110 5
b11 Z
1S"
b1 V
b1 W
1M"
b0 Y
0I"
1E"
0C"
b1100 (
b1100 C
b1100 P
b1100 U
0A"
1c"
b1110 R
1a"
b10 +
b10 D
b10 Q
0["
b1100 -
b1100 2
b1100 J
b1100 O
b101 .
b101 3
b101 7
b101 G
b101 N
b101 T
b1000 /
b1000 4
b1000 8
b1000 E
b1000 M
b1000 S
10
b1100 K
b101 H
b1000 F
#24
00
#25
0n
1N"
1F"
1D"
1o
14"
1p
1>"
b1101 V
1?"
0L"
0r
0s
0a
0]
b10 X
0/"
0h
1|
1t
1i
1""
0!"
0j
0&"
b1101 ?
1\"
0b"
1J"
1("
1+"
1-"
15"
1P"
b10 =
0V"
1#"
19"
17"
08"
06"
b1 )
b1 1
b1 @
b1 B
b1 <
b10 ;
0:
b101 -
b101 2
b101 J
b101 O
b1101 .
b1101 3
b1101 7
b1101 G
b1101 N
b1101 T
b1101 /
b1101 4
b1101 8
b1101 E
b1101 M
b1101 S
1Y"
b1110 +
b1110 D
b1110 Q
1["
b1100 R
0_"
0[
1A"
0E"
b1 (
b1 C
b1 P
b1 U
0G"
b1 Y
1I"
b10 Z
0Q"
b1110 ,
b1110 6
b1110 A
b1100 5
10
b101 K
b1101 H
b1101 F
#26
00
#27
0D"
0?"
1F"
1>"
0N"
1]
04"
1h
0`
1\
0i
1L"
1r
1s
0b
b1 X
1/"
0p
1j
1c
0|
0t
1d
0""
0q
1z
1x
0k
0e
1!"
0{
0y
1$"
0%"
b1010 ?
18"
16"
1B"
0@"
1="
1;"
0Z"
1T"
0\"
0`"
0*"
0,"
0."
11"
13"
0H"
1)"
10"
12"
0P"
0R"
19
b1 =
b1101 )
b1101 1
b1101 @
b1101 B
b10 >
b11 <
b11 ;
b1100 ,
b1100 6
b1100 A
b101 5
b11 Z
1Q"
1O"
b1010 V
b10 W
0M"
b11 Y
1K"
1G"
b1101 (
b1101 C
b1101 P
b1101 U
1E"
0c"
b101 R
1]"
b1100 +
b1100 D
b1100 Q
0W"
b0 -
b0 2
b0 J
b0 O
b1010 .
b1010 3
b1010 7
b1010 G
b1010 N
b1010 T
b11 /
b11 4
b11 8
b11 E
b11 M
b11 S
10
b0 K
b1010 H
b11 F
#28
00
#29
1N"
14"
1p
1F"
0L"
0s
1>"
0\
b10 X
0/"
1D"
1|
1u
1?"
0h
0a
1n
1w
1i
1b
0}
0v
0]
0c
0o
0x
0l
0d
1~
1y
0_
1k
1m
1e
1&"
1%"
b1101 ?
1\"
1`"
1b"
0("
0)"
0+"
0-"
00"
02"
05"
09
b10 =
0T"
0X"
0#"
09"
07"
1@"
0B"
08"
06"
0<"
0:"
b1010 )
b1010 1
b1010 @
b1010 B
b1 >
b10 <
b0 ;
1:
b1101 -
b1101 2
b1101 J
b1101 O
b0 /
b0 4
b0 8
b0 E
b0 M
b0 S
1U"
b101 +
b101 D
b101 Q
0["
0]"
b0 R
0a"
1[
0A"
1C"
b1010 (
b1010 C
b1010 P
b1010 U
0E"
b10 Y
0I"
1M"
b1101 V
b1 W
0O"
0Q"
b0 Z
0S"
b101 ,
b101 6
b101 A
b0 5
10
b1101 K
b0 F
#30
00
#31
1\
0N"
04"
0p
1L"
1s
b1 X
1/"
0|
0u
0n
0w
0D"
1}
1v
0?"
1o
1x
0j
0~
0y
1^
0$"
0%"
b1010 ?
1B"
0@"
1#"
1Z"
1X"
1T"
1*"
1,"
1."
0J"
1)"
10"
12"
1P"
19
b1 =
b1101 )
b1101 1
b1101 @
b1101 B
b10 >
0:
b0 ,
b0 6
b0 A
b1101 5
1O"
b1010 V
b10 W
0M"
1E"
0C"
b1101 (
b1101 C
b1101 P
b1101 U
1A"
0[
1c"
1a"
b1101 R
1]"
0Y"
b0 +
b0 D
b0 Q
0U"
b11 .
b11 3
b11 7
b11 G
b11 N
b11 T
b110 /
b110 4
b110 8
b110 E
b110 M
b110 S
10
b11 H
b110 F
#32
00
#33
1\
1N"
1F"
1q
14"
0p
1>"
0L"
0r
0s
1]
0`
b10 X
0/"
1h
1c
1|
1t
0D"
0i
0b
1""
0?"
0f
1l
0!"
1j
1g
0m
0&"
0^
b1001 ?
0b"
1J"
1("
1+"
1-"
15"
0P"
b10 =
0#"
0="
0;"
1@"
0B"
18"
16"
b1010 )
b1010 1
b1010 @
b1010 B
b1 >
b0 <
b1 ;
1:
b101 -
b101 2
b101 J
b101 O
b1011 .
b1011 3
b1011 7
b1011 G
b1011 N
b1011 T
b11 /
b11 4
b11 8
b11 E
b11 M
b11 S
1U"
1Y"
b1101 +
b1101 D
b1101 Q
1["
1[
0A"
1C"
b1010 (
b1010 C
b1010 P
b1010 U
0E"
b0 Y
0K"
1M"
b1001 V
b1 W
0O"
b1 Z
1Q"
b1101 ,
b1101 6
b1101 A
10
b101 K
b1011 H
b11 F
#34
00
#35
1D"
1?"
0N"
04"
1\
0]
0h
0L"
1s
0p
1i
0c
b0 X
0/"
1b
1|
0t
0}
0q
0l
1f
0""
1m
0g
1!"
1~
1r
1$"
1&"
b1110 ?
08"
06"
1B"
0@"
1="
1;"
0Z"
1b"
0*"
0,"
0."
1H"
0("
0+"
0-"
05"
b0 =
b1001 )
b1001 1
b1001 @
b1001 B
b10 >
b10 <
b0 ;
b101 5
b0 Z
0Q"
1O"
b1110 V
b10 W
0M"
b10 Y
1K"
0C"
b1001 (
b1001 C
b1001 P
b1001 U
1A"
b101 R
0c"
b1101 -
b1101 2
b1101 J
b1101 O
b1110 .
b1110 3
b1110 7
b1110 G
b1110 N
b1110 T
b10 /
b10 4
b10 8
b10 E
b10 M
b10 S
10
b1101 K
b1110 H
b10 F
#36
00
#37
0F"
0D"
1N"
0>"
0?"
b10 X
14"
1a
1]
0s
1h
0i
1t
1}
1q
1""
1l
0!"
0~
0r
0m
0$"
0&"
b0 ?
0\"
1^"
0`"
1*"
1,"
1."
0H"
0J"
1("
1+"
1-"
15"
1P"
1R"
b10 =
1Z"
19"
17"
0B"
b1110 )
b1110 1
b1110 @
b1110 B
b0 >
b11 <
b1010 -
b1010 2
b1010 J
b1010 O
b11 .
b11 3
b11 7
b11 G
b11 N
b11 T
b1111 /
b1111 4
b1111 8
b1111 E
b1111 M
b1111 S
b101 +
b101 D
b101 Q
0["
b1101 R
1c"
0A"
1C"
b1110 (
b1110 C
b1110 P
b1110 U
1E"
b11 Y
1I"
b0 V
b0 W
0O"
b101 ,
b101 6
b101 A
b1101 5
10
b1010 K
b11 H
b1111 F
#38
00
#39
1N"
14"
0\
1u
0L"
0s
1p
1w
b10 X
0/"
0v
1|
0t
0}
0q
0x
0""
1y
1!"
1~
1r
1$"
1&"
b10 ?
1<"
1:"
18"
16"
1B"
0="
0;"
09"
07"
0X"
1V"
0T"
0b"
0*"
0,"
0."
01"
03"
1H"
1J"
0("
0+"
0-"
05"
0P"
09
b0 )
b0 1
b0 @
b0 B
b10 >
b0 <
b11 ;
b1101 ,
b1101 6
b1101 A
b1010 5
1S"
b11 Z
1Q"
b10 V
b10 W
1O"
0K"
b0 Y
0I"
0G"
0E"
b0 (
b0 C
b0 P
b0 U
0C"
0a"
1_"
b1010 R
0]"
b1101 +
b1101 D
b1101 Q
1["
b10 -
b10 2
b10 J
b10 O
b1100 .
b1100 3
b1100 7
b1100 G
b1100 N
b1100 T
b1010 /
b1010 4
b1010 8
b1010 E
b1010 M
b1010 S
10
b10 K
b1100 H
b1010 F
#40
00
#41
1D"
0F"
1L"
1?"
b110 V
0>"
b11 X
1/"
1`
0|
0]
0a
0h
0b
1}
1i
1c
1d
0~
0j
0e
0$"
b110 ?
0^"
1b"
1*"
1,"
1."
0H"
0J"
b11 =
0Z"
1#"
19"
17"
1="
1;"
08"
06"
b10 )
b10 1
b10 @
b10 B
b11 <
b10 ;
0:
b1000 -
b1000 2
b1000 J
b1000 O
b1 .
b1 3
b1 7
b1 G
b1 N
b1 T
0U"
1W"
b1010 +
b1010 D
b1010 Q
0Y"
b10 R
0c"
0[
b10 (
b10 C
b10 P
b10 U
1C"
1I"
b11 Y
1K"
b10 Z
0Q"
b1010 ,
b1010 6
b1010 A
b10 5
10
b1000 K
b1 H
#42
00
#43
0N"
b1 X
04"
0p
1F"
1>"
1s
0D"
0`
0?"
0u
1b
1^
1n
1v
0c
0w
0d
0l
0o
0z
1e
1m
1{
1%"
b1011 ?
1@"
0="
0;"
09"
07"
1Z"
0V"
1\"
1^"
1J"
0)"
00"
02"
b1 =
b110 )
b110 1
b110 @
b110 B
b11 >
b0 <
b10 ,
b10 6
b10 A
b1000 5
b1011 V
b11 W
1M"
0K"
b0 Y
0I"
b110 (
b110 C
b110 P
b110 U
1E"
1c"
b1000 R
0_"
b10 +
b10 D
b10 Q
0["
b1011 -
b1011 2
b1011 J
b1011 O
b1001 .
b1001 3
b1001 7
b1001 G
b1001 N
b1001 T
b1000 /
b1000 4
b1000 8
b1000 E
b1000 M
b1000 S
10
b1011 K
b1001 H
b1000 F
#44
00
